<svg width="645" height="493" viewBox="0 0 645 493" fill="none" xmlns="http://www.w3.org/2000/svg">
<path opacity="0.1" d="M581.94 339.17C578.12 348.37 573.12 357.17 566.11 363.95C557.57 372.19 546.97 376.69 535.61 378.83C532.263 379.454 528.885 379.891 525.49 380.14C516.487 380.725 507.448 380.481 498.49 379.41C476.919 377.052 455.646 372.498 435 365.82C431.607 364.727 428.233 363.573 424.88 362.36C419.82 360.54 414.82 358.593 409.88 356.52C389.64 348.06 368.71 337.27 347.18 340.62C336.74 342.25 326.94 347.17 316.48 348.62C309.139 349.581 301.679 349.047 294.55 347.05C291.098 346.128 287.716 344.962 284.43 343.56C277.033 340.346 269.995 336.364 263.43 331.68C247.65 320.68 233.49 306.98 216.88 297.43C198.57 286.9 178.29 281.89 157.64 278.16C154.307 277.553 150.933 276.973 147.52 276.42C137.96 274.84 128.38 273.42 118.94 271.66C109.84 269.98 100.58 267.93 92.6699 262.88C87.0199 259.28 82.2699 254.29 77.9099 249.03C69.871 239.287 62.9759 228.654 57.3599 217.34C57.0599 216.747 56.7666 216.15 56.4799 215.55C47.7299 197.61 41.8499 178.04 38.2399 157.8C38.1299 157.2 38.0299 156.61 37.9299 156.01C34.6195 135.944 33.1932 115.612 33.6699 95.28V93.49C33.8999 83.43 34.53 73.42 35.46 63.55C36.13 56.61 37.0199 49.4 40.6199 43.55C44.2199 37.7 49.9999 34 55.8699 30.89C81.6499 17.15 106.36 13.33 134.1 19.99C138.55 21.06 142.99 22.2 147.42 23.4C150.8 24.3 154.17 25.24 157.54 26.18C180.84 32.66 204.06 39.58 228.16 41.64C230.487 41.84 232.82 41.9934 235.16 42.1C239.767 42.3134 244.373 42.36 248.98 42.24C260.851 41.9081 272.68 40.6914 284.37 38.6C287.75 38.0134 291.123 37.3667 294.49 36.66C309.02 33.66 323.41 29.59 337.58 25.12C340.473 24.2067 343.363 23.2767 346.25 22.33C352.75 20.2 359.25 18.04 365.77 15.93C385.21 9.63001 404.77 3.87002 424.88 1.55002C426.6 1.35668 428.323 1.18335 430.05 1.03001C431.7 0.890013 433.35 0.770016 435.05 0.690016C466.615 -0.845371 497.976 6.52877 525.55 21.97C528.983 23.8833 532.357 25.9167 535.67 28.07C540.263 31.0567 544.713 34.2733 549.02 37.72C557.86 44.78 566.13 52.81 572.42 62.46C578.47 71.9388 582.68 82.4725 584.83 93.51C584.96 94.11 585.07 94.7 585.18 95.3C588.54 113.21 587.5 132.43 583.72 150.38C583.32 152.26 582.9 154.15 582.46 156.03C582.32 156.63 582.18 157.22 582.04 157.82C577.97 174.82 572.76 191.72 574.12 209.08C574.29 211.27 574.57 213.43 574.92 215.58C575.02 216.18 575.12 216.77 575.24 217.37C577.9 231.53 583.93 244.96 587.55 258.98C594.325 285.62 592.359 313.733 581.94 339.17Z" fill="#EDEDF4"/>
<path opacity="0.1" d="M534.35 94.87H583.87C583.76 94.27 583.64 93.68 583.52 93.08H534.35V27.65C531.017 25.4967 527.643 23.4634 524.23 21.55V93.08H433.73V0.27002C432.08 0.35002 430.43 0.470016 428.73 0.610016C427.03 0.750016 425.28 0.93002 423.56 1.13002V93.13H294.42L294.11 92.79L364.5 15.55C357.99 17.66 351.5 19.82 344.98 21.95L293.22 78.77V36.24C289.853 36.9467 286.48 37.5933 283.1 38.18V80.66L247.71 41.81C243.103 41.9233 238.497 41.8767 233.89 41.67L280.42 92.74L280.11 93.08H156.28V25.73C152.91 24.79 149.53 23.85 146.16 22.95V93.08H32.35V94.87H146.17V155.6H36.57C36.67 156.2 36.77 156.79 36.88 157.39H146.17V215.14H55.12C55.4067 215.733 55.7 216.33 56 216.93H146.18V276C149.56 276.553 152.933 277.133 156.3 277.74V216.92H283.11V343.14C286.396 344.542 289.778 345.708 293.23 346.63V216.92H423.62V361.92C426.953 363.133 430.327 364.287 433.74 365.38V216.92H524.24V379.71C527.635 379.461 531.014 379.024 534.36 378.4V216.92H573.94C573.83 216.32 573.73 215.73 573.62 215.13H534.33V157.38H580.71C580.85 156.78 581 156.19 581.13 155.59H534.36L534.35 94.87ZM524.23 94.87V155.6H433.73V94.87H524.23ZM423.61 155.6H293.23V94.87H423.62L423.61 155.6ZM156.29 94.87H281.29L283.08 96.5V155.6H156.29V94.87ZM156.29 215.14V157.38H283.11V215.13L156.29 215.14ZM293.23 215.14V157.38H423.62V215.13L293.23 215.14ZM524.23 215.14H433.73V157.38H524.23V215.14Z" fill="#E0E0E2"/>
<path opacity="0.1" d="M482 53.47H481.21C481.494 53.3148 481.735 53.0905 481.909 52.8179C482.084 52.5453 482.188 52.2331 482.21 51.91C482.21 50.68 480.7 49.67 478.86 49.67H455.37C453.53 49.67 452.02 50.67 452.02 51.91C452.02 53.14 453.53 54.15 455.37 54.15H456.16C455.875 54.3046 455.634 54.5287 455.459 54.8014C455.285 55.0742 455.182 55.3867 455.16 55.71C455.16 56.71 456.26 57.64 457.72 57.88H451C449.15 57.88 447.65 58.88 447.65 60.12C447.65 61.36 449.16 62.36 451 62.36H474.46C476.31 62.36 477.81 61.36 477.81 60.12C477.81 59.12 476.71 58.19 475.24 57.95H482C483.84 57.95 485.35 56.95 485.35 55.72C485.35 54.49 483.82 53.47 482 53.47Z" fill="#E0E0E2"/>
<path opacity="0.1" d="M227.66 74.76H226.87C227.15 74.5999 227.387 74.3744 227.562 74.1028C227.736 73.8311 227.842 73.5214 227.87 73.2C227.87 71.97 226.36 70.97 224.52 70.97H201C199.15 70.97 197.65 71.97 197.65 73.2C197.65 74.43 199.16 75.44 201 75.44H201.78C201.496 75.5959 201.256 75.8204 201.082 76.0929C200.907 76.3653 200.803 76.6772 200.78 77C200.78 78 201.88 78.93 203.34 79.17H196.58C194.74 79.17 193.23 80.17 193.23 81.4C193.23 82.63 194.74 83.64 196.58 83.64H220.07C221.91 83.64 223.42 82.64 223.42 81.4C223.42 80.4 222.32 79.47 220.85 79.23H227.61C229.45 79.23 230.96 78.23 230.96 76.99C230.96 75.75 229.5 74.76 227.66 74.76Z" fill="#E0E0E2"/>
<path opacity="0.1" d="M518 165.89H517.21C517.49 165.73 517.727 165.504 517.902 165.233C518.076 164.961 518.181 164.651 518.21 164.33C518.21 163.1 516.7 162.09 514.86 162.09H491.4C489.55 162.09 488.05 163.09 488.05 164.33C488.05 165.56 489.56 166.57 491.4 166.57H492.18C491.896 166.726 491.656 166.95 491.482 167.223C491.307 167.495 491.203 167.807 491.18 168.13C491.18 169.13 492.28 170.06 493.74 170.3H487C485.16 170.3 483.65 171.3 483.65 172.54C483.65 173.78 485.16 174.78 487 174.78H510.47C512.31 174.78 513.82 173.78 513.82 172.54C513.82 171.54 512.72 170.61 511.25 170.37H518C519.84 170.37 521.35 169.37 521.35 168.14C521.35 166.91 519.82 165.89 518 165.89Z" fill="#E0E0E2"/>
<path opacity="0.1" d="M313.02 461.88C451.964 461.88 564.6 449.447 564.6 434.11C564.6 418.773 451.964 406.34 313.02 406.34C174.076 406.34 61.4399 418.773 61.4399 434.11C61.4399 449.447 174.076 461.88 313.02 461.88Z" fill="#D4D4D6"/>
<path d="M365.33 236.5V323.84C365.332 325.324 365.13 326.801 364.73 328.23C363.772 331.704 361.7 334.768 358.834 336.951C355.967 339.135 352.464 340.318 348.86 340.32H275C270.634 340.32 266.446 338.586 263.358 335.5C260.269 332.413 258.533 328.226 258.53 323.86V236.5C258.526 234.335 258.949 232.19 259.775 230.188C260.601 228.186 261.814 226.367 263.343 224.835C264.873 223.302 266.69 222.086 268.69 221.257C270.69 220.427 272.835 220 275 220H348.84C352.444 220.002 355.947 221.185 358.814 223.369C361.68 225.552 363.752 228.616 364.71 232.09C365.119 233.524 365.327 235.008 365.33 236.5Z" fill="#E8E9E8"/>
<path opacity="0.1" d="M259.75 236.5V323.84C259.749 325.324 259.547 326.8 259.15 328.23C258.753 326.8 258.551 325.324 258.55 323.84V236.5C258.551 235.016 258.753 233.54 259.15 232.11C259.547 233.54 259.749 235.016 259.75 236.5Z" fill="black"/>
<path d="M242.09 220.03H145.64C136.544 220.03 129.17 227.404 129.17 236.5V323.83C129.17 332.926 136.544 340.3 145.64 340.3H242.09C251.186 340.3 258.56 332.926 258.56 323.83V236.5C258.56 227.404 251.186 220.03 242.09 220.03Z" fill="#E8E9E8"/>
<path opacity="0.1" d="M365.33 236.5V323.84C365.332 325.324 365.13 326.801 364.73 328.23C364.333 326.8 364.131 325.324 364.13 323.84V236.5C364.131 235.016 364.333 233.54 364.73 232.11C365.13 233.539 365.332 235.016 365.33 236.5Z" fill="black"/>
<path d="M478.26 220.03H381.8C372.704 220.03 365.33 227.404 365.33 236.5V323.83C365.33 332.926 372.704 340.3 381.8 340.3H478.26C487.356 340.3 494.73 332.926 494.73 323.83V236.5C494.73 227.404 487.356 220.03 478.26 220.03Z" fill="#E8E9E8"/>
<path opacity="0.1" d="M252 349.22H133.81L133.21 338.89C132.56 327.29 147.55 317.66 166.27 317.66H246.72C253 317.66 257.85 321.08 257.04 324.94L252 349.22Z" fill="black"/>
<path d="M252 350.41H133.81L133.21 340.08C132.56 328.48 147.55 318.85 166.27 318.85H246.72C253 318.85 257.85 322.27 257.04 326.13L252 350.41Z" fill="#E0E0E2"/>
<path opacity="0.1" d="M370.45 349.91H488.65L489.25 339.58C489.9 327.98 474.91 318.35 456.19 318.35H375.74C369.46 318.35 364.61 321.77 365.42 325.63L370.45 349.91Z" fill="black"/>
<path d="M370.45 351.1H488.65L489.25 340.77C489.9 329.17 474.91 319.54 456.19 319.54H375.74C369.46 319.54 364.61 322.96 365.42 326.82L370.45 351.1Z" fill="#E0E0E2"/>
<path opacity="0.1" d="M272.48 318.35H352.57C354.803 318.35 357.013 318.79 359.076 319.644C361.138 320.498 363.012 321.751 364.591 323.329C366.169 324.908 367.422 326.782 368.276 328.844C369.13 330.907 369.57 333.118 369.57 335.35V345.92H253.8V337C253.808 332.051 255.78 327.307 259.282 323.811C262.784 320.314 267.531 318.35 272.48 318.35Z" fill="black"/>
<path d="M272.48 319.54H352.57C354.803 319.54 357.013 319.98 359.076 320.834C361.138 321.688 363.012 322.941 364.591 324.519C366.169 326.098 367.422 327.972 368.276 330.034C369.13 332.097 369.57 334.308 369.57 336.54V347.11H253.8V338.18C253.811 333.233 255.783 328.492 259.285 324.997C262.787 321.503 267.533 319.54 272.48 319.54Z" fill="#E0E0E2"/>
<path d="M141.88 330.17H237.74C239.852 330.17 241.943 330.586 243.894 331.394C245.844 332.202 247.617 333.387 249.11 334.88C250.603 336.373 251.788 338.146 252.596 340.096C253.404 342.047 253.82 344.138 253.82 346.25V368H134.76V337.3C134.763 335.412 135.513 333.601 136.848 332.265C138.182 330.928 139.992 330.175 141.88 330.17Z" fill="#E8E9E8"/>
<path opacity="0.1" d="M265.7 330.17H356.79C358.902 330.17 360.993 330.586 362.944 331.394C364.895 332.202 366.667 333.387 368.16 334.88C369.653 336.373 370.838 338.146 371.646 340.096C372.454 342.047 372.87 344.138 372.87 346.25V368H250.53V345.35C250.53 341.326 252.128 337.466 254.973 334.62C257.817 331.773 261.676 330.173 265.7 330.17Z" fill="black"/>
<path opacity="0.1" d="M268.09 330.17H359.18C363.445 330.17 367.535 331.864 370.55 334.88C373.566 337.895 375.26 341.985 375.26 346.25V368H252.91V345.35C252.91 343.357 253.303 341.383 254.065 339.541C254.828 337.699 255.946 336.026 257.356 334.616C258.766 333.206 260.439 332.088 262.281 331.326C264.123 330.563 266.096 330.17 268.09 330.17Z" fill="black"/>
<path d="M266.89 330.17H358C362.265 330.17 366.355 331.864 369.37 334.88C372.386 337.895 374.08 341.985 374.08 346.25V368H251.72V345.35C251.72 341.326 253.318 337.466 256.163 334.62C259.007 331.773 262.866 330.173 266.89 330.17Z" fill="#E8E9E8"/>
<path opacity="0.1" d="M377.8 330.17H475.13C479.196 330.17 483.095 331.785 485.97 334.66C488.845 337.535 490.46 341.434 490.46 345.5V368H371.46V336.55C371.46 335.712 371.625 334.883 371.946 334.108C372.266 333.334 372.736 332.631 373.329 332.039C373.921 331.446 374.624 330.976 375.398 330.656C376.172 330.335 377.002 330.17 377.84 330.17H377.8Z" fill="black"/>
<path d="M379 330.17H476.33C480.396 330.17 484.295 331.785 487.17 334.66C490.045 337.535 491.66 341.434 491.66 345.5V368H372.66V336.55C372.66 335.712 372.825 334.883 373.146 334.108C373.466 333.334 373.936 332.631 374.529 332.039C375.121 331.446 375.824 330.976 376.599 330.656C377.373 330.335 378.202 330.17 379.04 330.17H379Z" fill="#E8E9E8"/>
<path d="M136.51 418.29V434.51C136.51 436.682 135.647 438.765 134.111 440.301C132.575 441.837 130.492 442.7 128.32 442.7H122.66C121.584 442.7 120.519 442.488 119.526 442.077C118.532 441.665 117.629 441.062 116.869 440.301C116.108 439.541 115.505 438.638 115.093 437.644C114.682 436.651 114.47 435.586 114.47 434.51V418.29H136.51Z" fill="#27273C"/>
<path d="M511.28 418.29V434.51C511.28 436.682 510.417 438.765 508.881 440.301C507.345 441.837 505.262 442.7 503.09 442.7H497.43C495.258 442.7 493.175 441.837 491.639 440.301C490.103 438.765 489.24 436.682 489.24 434.51V418.29H511.28Z" fill="#27273C"/>
<path d="M142.52 311.8C142.52 307.682 141.35 303.649 139.146 300.17C136.942 296.692 133.795 293.911 130.072 292.152C126.349 290.393 122.202 289.728 118.115 290.235C114.029 290.742 110.17 292.4 106.989 295.015C103.808 297.63 101.436 301.096 100.149 305.007C98.8618 308.919 98.7125 313.116 99.7186 317.109C100.725 321.102 102.845 324.727 105.832 327.562C108.819 330.396 112.55 332.324 116.59 333.12V421H141V319.82C142.009 317.267 142.524 314.545 142.52 311.8Z" fill="#E0E0E2"/>
<path d="M482.37 311.8C482.37 307.682 483.54 303.649 485.744 300.17C487.948 296.692 491.095 293.911 494.818 292.152C498.542 290.393 502.688 289.728 506.775 290.235C510.861 290.742 514.72 292.4 517.901 295.015C521.082 297.63 523.454 301.096 524.741 305.007C526.028 308.919 526.178 313.116 525.172 317.109C524.165 321.102 522.045 324.727 519.058 327.562C516.071 330.396 512.34 332.324 508.3 333.12V421H483.89V319.82C482.882 317.267 482.366 314.545 482.37 311.8Z" fill="#E0E0E2"/>
<path d="M497.01 405.78H129.17V422.75H497.01V405.78Z" fill="#27273C"/>
<path opacity="0.1" d="M494.73 367.98H133.23V406.98H494.73V367.98Z" fill="black"/>
<path d="M494.73 366.79H133.23V405.79H494.73V366.79Z" fill="#EAEAEB"/>
<path opacity="0.1" d="M511.27 418.29H489.28V423.95H511.27V418.29Z" fill="black"/>
<path d="M487.74 313.59C487.74 309.472 488.91 305.438 491.114 301.959C493.318 298.48 496.465 295.698 500.189 293.939C503.913 292.18 508.06 291.516 512.147 292.023C516.234 292.531 520.093 294.189 523.274 296.806C526.455 299.422 528.826 302.888 530.113 306.801C531.399 310.713 531.547 314.91 530.54 318.904C529.532 322.897 527.411 326.522 524.422 329.356C521.434 332.19 517.701 334.116 513.66 334.91V422.75H489.25V321.61C488.242 319.057 487.73 316.335 487.74 313.59Z" fill="#EDEDF4"/>
<path opacity="0.1" d="M136.2 418.29H114.48V423.95H136.2V418.29Z" fill="black"/>
<path d="M137.73 313.59C137.727 309.476 136.557 305.447 134.354 301.971C132.152 298.496 129.008 295.718 125.289 293.959C121.569 292.2 117.427 291.534 113.343 292.037C109.26 292.54 105.403 294.192 102.221 296.801C99.04 299.409 96.6645 302.868 95.3713 306.774C94.0781 310.68 93.9204 314.872 94.9164 318.864C95.9124 322.856 98.0212 326.483 100.998 329.324C103.974 332.164 107.696 334.102 111.73 334.91V422.75H136.14V321.61C137.175 319.062 137.715 316.34 137.73 313.59Z" fill="#EDEDF4"/>
<path opacity="0.1" d="M484.01 366.79H140.98V367.88H484.01V366.79Z" fill="black"/>
<path d="M114.48 322.72C119.903 322.72 124.3 318.323 124.3 312.9C124.3 307.477 119.903 303.08 114.48 303.08C109.056 303.08 104.66 307.477 104.66 312.9C104.66 318.323 109.056 322.72 114.48 322.72Z" fill="#27273C"/>
<path d="M511.27 322.72C516.693 322.72 521.09 318.323 521.09 312.9C521.09 307.477 516.693 303.08 511.27 303.08C505.847 303.08 501.45 307.477 501.45 312.9C501.45 318.323 505.847 322.72 511.27 322.72Z" fill="#27273C"/>
<path d="M100.42 266.54C99.0015 266.044 97.746 265.169 96.79 264.01C95.34 262.22 94.79 259.94 99.65 259.08C108.34 257.56 137.16 247.17 141.59 234.54C146.02 221.91 151.88 224.64 151.88 224.64C151.88 224.64 168.46 256.79 176.09 262.07C176.09 262.07 196.93 287.21 206.33 289.5C215.73 291.79 197.76 301.21 196.33 301.26C195.23 301.26 179.33 306.02 164.78 317.26C159.409 321.404 155.041 326.706 152 332.77C150.4 335.95 148.05 338.41 145.61 333.37C141.21 324.3 127.61 289.57 116.47 282.17C116.46 282.16 104.21 268 100.42 266.54Z" fill="#27273C"/>
<path d="M133.81 277.91C133.81 277.91 130.69 280.85 145.61 275.22C160.53 269.59 133.81 277.91 133.81 277.91Z" fill="#0E0E16"/>
<path d="M146.06 292.23C146.06 292.23 148.33 292.56 156.89 289.06C165.45 285.56 146.06 292.23 146.06 292.23Z" fill="#0E0E16"/>
<path d="M145.31 318.52C145.31 318.52 147.44 318.52 155.97 314.98C164.5 311.44 145.31 318.52 145.31 318.52Z" fill="#0E0E16"/>
<path d="M497.88 264.93C498.881 264.164 499.635 263.121 500.05 261.93C500.65 260.14 500.3 258.36 495.82 259.24C487.87 260.83 459.59 262.24 451.22 254.48C442.85 246.72 438.87 250.48 438.87 250.48C438.87 250.48 436.49 278.96 431.87 285.14C431.87 285.14 423.31 309.84 416.13 314.43C408.95 319.02 427.69 320.27 428.88 319.87C429.88 319.55 445.1 318.08 461.51 321.66C467.478 322.937 473.121 325.425 478.09 328.97C480.61 330.76 483.5 331.83 483.75 327.42C484.2 319.48 483.15 290.07 489.91 281.23C489.93 281.25 495.16 267.13 497.88 264.93Z" fill="#27273C"/>
<path d="M476.91 281.35C476.91 281.35 474.83 282.54 464.85 285.96C454.87 289.38 475.28 284.62 476.91 281.35Z" fill="#0E0E16"/>
<path d="M475.87 291.86C475.87 291.86 469.62 296.98 466.49 297.43C463.36 297.88 474.09 296.86 475.87 291.86Z" fill="#0E0E16"/>
<path d="M480.84 315.51C480.84 315.51 474.59 320.63 471.46 321.08C468.33 321.53 479.06 320.52 480.84 315.51Z" fill="#0E0E16"/>
<path d="M188.23 252.34L187.49 261.79L192.08 271.79L198.57 277.51L205.63 281.68L212.18 286.24L218.73 280.36C218.73 280.36 209.14 274.2 208.28 272.11C207.42 270.02 203.11 265.79 203.11 265.79L197 259.86L192.06 255.35L188.23 252.34Z" fill="#FD6F8D"/>
<path d="M188.23 252.34L187.49 261.79L192.08 271.79L198.57 277.51L205.63 281.68L212.18 286.24L218.73 280.36C218.73 280.36 209.14 274.2 208.28 272.11C207.42 270.02 203.11 265.79 203.11 265.79L197 259.86L192.06 255.35L188.23 252.34Z" fill="#BC082B"/>
<path d="M158.51 215.63C155.336 221.534 154.582 228.441 156.41 234.89C160.66 249.18 129.5 229.19 129.5 229.19C129.5 229.19 136.22 219.19 138.18 210.51C138.888 208.026 138.888 205.394 138.18 202.91C135.09 194.21 162.73 209.29 162.73 209.29C161.057 211.213 159.639 213.344 158.51 215.63Z" fill="#465A7C"/>
<path opacity="0.1" d="M154.55 228.8C154.55 228.8 166.27 229.23 167.87 232.57C169.47 235.91 172.79 241.13 174.25 241.85C175.71 242.57 191.06 255.19 192.37 255.76C193.68 256.33 206.87 270.11 206.87 271.56C206.87 273.01 220.5 281.42 229.2 282.72C237.9 284.02 251.2 299.72 255.15 299.1C259.1 298.48 267 301.43 267 301.43C267 301.43 276 301 278.16 299.54C280.32 298.08 288.45 300.99 286.57 304.47C284.69 307.95 277.87 306.79 276.28 308.82C274.69 310.85 270.77 313.02 267 313.46C263.782 313.735 260.585 314.219 257.43 314.91C254.53 315.64 255.26 317.08 250.88 316.36C246.5 315.64 229.57 285.48 229.57 285.48L210.73 276.93C210.73 276.93 203.63 271.13 203.04 269.24C202.45 267.35 188.83 254.46 188.83 254.46L171 241.41L154.55 228.8Z" fill="black"/>
<path d="M155.42 228.8C155.42 228.8 167.14 229.23 168.74 232.57C170.34 235.91 173.67 241.13 175.12 241.85C176.57 242.57 191.93 255.19 193.24 255.76C194.55 256.33 207.73 270.11 207.73 271.56C207.73 273.01 221.36 281.42 230.06 282.72C238.76 284.02 252.06 299.72 256.01 299.1C259.96 298.48 267.92 301.42 267.92 301.42C267.92 301.42 276.92 300.99 279.08 299.53C281.24 298.07 289.37 300.98 287.49 304.46C285.61 307.94 278.79 306.78 277.2 308.81C275.61 310.84 271.69 313.01 267.92 313.45C264.695 313.725 261.492 314.209 258.33 314.9C255.44 315.63 256.16 317.07 251.78 316.35C247.4 315.63 230.47 285.47 230.47 285.47L211.63 276.92C211.63 276.92 204.53 271.12 203.94 269.23C203.35 267.34 189.78 254.45 189.78 254.45L171.92 241.4L155.42 228.8Z" fill="#B90B2B"/>
<path d="M216.48 293.55C216.48 293.55 234.07 277.99 234.94 276.83C235.37 276.23 240.94 272.04 246.45 267.9C253.296 262.799 259.714 257.147 265.64 251C269.64 246.88 273.86 242.77 275.33 242.44C278.33 241.76 285.86 242.05 287.41 244.66C288.96 247.27 295.63 252.01 295.63 252.01L301.33 258.38C301.33 258.38 314.77 268.82 323.47 278.38C332.17 287.94 342.41 298.29 346.09 298.68C349.77 299.07 355.37 303.8 355.37 303.8C355.37 303.8 363.29 307.67 366.09 310.8C368.89 313.93 373.53 316.89 378.27 317.08C383.01 317.27 375.76 320.95 367.93 320.46C360.1 319.97 350.54 317.56 347.15 318.14C343.76 318.72 334.3 318.81 334.3 317.07C334.485 315.114 334.819 313.175 335.3 311.27C335.3 311.27 324.86 302.6 314.3 300.76C303.74 298.92 280.45 281.62 280.64 273.6C280.64 273.6 277.36 273.31 273.58 279.11C273.58 279.11 270.88 281.43 266.33 287.9C261.78 294.37 256.33 303.65 256.33 303.65C256.33 303.65 247.92 320.65 241.16 320.51C234.4 320.37 227.16 319.59 227.16 319.59L218.16 313.21L217.56 305.47L216.48 293.55Z" fill="#3D5270"/>
<path d="M220.54 294.42C220.54 294.42 238.13 278.86 239 277.7C239.87 276.54 261.7 260.5 261.7 260.5C261.7 260.5 276.39 243.98 279.39 243.3C282.39 242.62 289.92 242.91 291.47 245.52C293.5 248 299 253 299 253L305.38 259.25C305.38 259.25 318.81 269.69 327.51 279.25C336.21 288.81 346.45 299.16 350.13 299.55C353.81 299.94 359.41 304.68 359.41 304.68C359.41 304.68 367.33 308.54 370.13 311.68C372.93 314.82 377.57 317.77 382.31 317.96C387.05 318.15 379.8 321.83 371.97 321.34C364.14 320.85 354.57 318.45 351.19 319.02C347.81 319.59 338.35 319.72 338.35 317.94C338.53 315.983 338.864 314.044 339.35 312.14C339.35 312.14 328.91 303.45 318.28 301.61C307.65 299.77 284.47 282.49 284.65 274.48C284.65 274.48 281.36 274.19 277.59 279.99C277.59 279.99 274.89 282.31 270.34 288.78C265.79 295.25 260.34 304.53 260.34 304.53C260.34 304.53 251.93 321.53 245.16 321.39C238.39 321.25 231.16 320.47 231.16 320.47L222.16 314.09L221.56 306.35L220.54 294.42Z" fill="#465A7C"/>
<path opacity="0.1" d="M277.15 303.48C276.67 303.68 276.21 303.93 275.75 304.17L272.75 305.76C275.345 306.188 277.985 306.265 280.6 305.99C282.05 305.84 284.09 304.6 282.44 303.14C281.14 302 278.49 302.9 277.15 303.48Z" fill="black"/>
<path opacity="0.1" d="M263.54 305.54C265.15 305.22 266.89 304.9 268.4 305.54C268.916 305.789 269.405 306.091 269.86 306.44L272.44 308.3C270.214 308.957 267.924 309.376 265.61 309.55C265.306 309.603 264.994 309.603 264.69 309.55C264.294 309.409 263.935 309.18 263.64 308.88C261.62 307.17 260.26 306.19 263.54 305.54Z" fill="black"/>
<path opacity="0.1" d="M162.75 209.28C161.073 211.206 159.651 213.34 158.52 215.63C154.977 216.6 151.243 216.637 147.68 215.738C144.118 214.839 140.849 213.035 138.19 210.5C138.898 208.016 138.898 205.384 138.19 202.9C135.11 194.2 162.75 209.28 162.75 209.28Z" fill="black"/>
<path d="M152.87 215.81C164.612 215.81 174.13 206.292 174.13 194.55C174.13 182.808 164.612 173.29 152.87 173.29C141.128 173.29 131.61 182.808 131.61 194.55C131.61 206.292 141.128 215.81 152.87 215.81Z" fill="#465A7C"/>
<path d="M155.43 228.8L154.29 230.63L168.1 245.62L174.59 250.16L178.34 245.13L155.43 228.8Z" fill="#B90B2B"/>
<path d="M176.68 244.88C176.68 244.88 183.49 244.02 186.63 249.24C188.484 252.253 189.655 255.635 190.06 259.15C190.06 259.15 193.2 261.66 192.91 263.07C192.674 263.971 192.124 264.758 191.36 265.29C191.36 265.29 185.27 261.81 185.22 261.66C185.17 261.51 180.53 256.39 180.53 256.39L176.67 252.34L176.68 244.88Z" fill="#B90B2B"/>
<path opacity="0.1" d="M135.69 224.16C135.69 224.16 125.06 225.01 124 232.42C122.94 239.83 122.55 244.07 126.32 249.19C130.09 254.31 137.82 256.44 137.82 256.44C137.82 256.44 149.51 265.62 149.61 271.22C149.71 276.82 159.61 289.39 159.61 289.39C159.61 289.39 178.37 303.3 177.01 307.75C175.65 312.2 175.26 324.86 180.19 326.02C185.12 327.18 193.14 326.21 194.3 327.66C195.46 329.11 214.6 326.89 214.6 326.89C214.6 326.89 225.23 324.47 232.28 326.6C236.675 327.816 241.357 327.463 245.52 325.6C245.52 325.6 253.74 324.83 254.22 321.54C254.7 318.25 258.39 318.35 254.9 317.77C251.41 317.19 249.2 319.03 246.68 318.16C244.16 317.29 242.04 314.39 236.24 314.49C230.44 314.59 229.1 314.69 228.5 314.59C227.9 314.49 232.17 311.21 229.85 305.9C227.53 300.59 223.09 296.44 223.29 293.46C223.49 290.48 214.59 280.31 214.59 280.31C214.59 280.31 210.34 274.13 204.83 272.1C199.32 270.07 188.98 257.6 188.98 257.6C188.98 257.6 180.13 243.82 175.32 243.08C170.51 242.34 154.77 228.2 154.77 228.2C154.77 228.2 141.37 222.7 135.69 224.16Z" fill="black"/>
<path d="M135.4 224.74C135.4 224.74 124.77 225.6 123.69 233C122.61 240.4 122.24 244.65 126.01 249.77C129.78 254.89 137.51 257.02 137.51 257.02C137.51 257.02 149.2 266.2 149.3 271.81C149.4 277.42 159.3 289.97 159.3 289.97C159.3 289.97 178 303.9 176.68 308.36C175.36 312.82 174.94 325.47 179.86 326.63C184.78 327.79 192.86 326.83 193.97 328.27C195.08 329.71 214.27 327.5 214.27 327.5C214.27 327.5 224.9 325.09 231.96 327.21C236.352 328.427 241.031 328.074 245.19 326.21C245.19 326.21 253.41 325.44 253.89 322.16C254.37 318.88 258.06 318.97 254.57 318.39C251.08 317.81 248.87 319.65 246.35 318.77C243.83 317.89 241.71 315 235.91 315.1C230.11 315.2 228.77 315.29 228.17 315.2C227.57 315.11 231.84 311.82 229.52 306.5C227.2 301.18 222.75 297 223 294C223.25 291 214.3 280.85 214.3 280.85C214.3 280.85 210.05 274.67 204.54 272.64C199.03 270.61 188.69 258.14 188.69 258.14C188.69 258.14 179.8 244.41 175 243.66C170.2 242.91 154.44 228.81 154.44 228.81C154.44 228.81 141.08 223.28 135.4 224.74Z" fill="#BC082B"/>
<path d="M257.57 213.3L267.85 208.3L264.28 259.91L253.45 257.76L256.26 215.23C256.29 214.822 256.427 214.429 256.657 214.09C256.887 213.751 257.202 213.479 257.57 213.3Z" fill="#EFEFF9"/>
<path d="M267.85 208.3L264.28 259.91C264.675 259.909 265.054 259.759 265.343 259.49C265.633 259.221 265.81 258.854 265.84 258.46L269.56 210.8C269.602 210.251 269.455 209.704 269.144 209.249C268.834 208.795 268.377 208.46 267.85 208.3Z" fill="#E0E0E2"/>
<path d="M253.48 257.46L220.85 281.46C220.337 281.827 219.991 282.384 219.888 283.006C219.784 283.629 219.933 284.267 220.3 284.78L220.47 284.99L223.66 288.62L264.94 257.77L254.94 257.05C254.419 257.002 253.899 257.148 253.48 257.46Z" fill="#E8E9E8"/>
<path d="M252.64 259.9L230.67 275.28L233.73 278.6L259.36 260.36L252.64 259.9Z" fill="#27273C"/>
<path d="M223.68 288.61L264.95 257.76C265.27 258.44 265.345 259.209 265.163 259.938C264.98 260.667 264.552 261.311 263.95 261.76L227.71 289C227.111 289.45 226.365 289.66 225.619 289.587C224.873 289.515 224.182 289.167 223.68 288.61Z" fill="#E0E0E2"/>
<path d="M216.57 280.31C216.57 280.31 230.98 251.2 239.49 262.31C248 273.42 226.44 285.53 226.44 285.53L216.57 280.31Z" fill="#465A7C"/>
<path opacity="0.1" d="M139.76 232.48C136.904 233.223 134.286 234.687 132.158 236.732C130.031 238.777 128.464 241.335 127.61 244.16C126.68 247.36 126.74 250.86 129.91 253.16C137.16 258.52 147.4 262.29 152.14 271.09C155.105 276.84 157.153 283.018 158.21 289.4L170.49 307.52C170.49 307.52 172.35 313.32 184.78 308.78C197.21 304.24 204 302 204 302C204 302 213.63 296.83 217.94 294.94C218.547 294.631 219.193 294.402 219.86 294.26C221.31 294.26 231.67 285.39 232.14 284.17C232.61 282.95 221.67 277.88 217.29 278.98C217.29 278.98 216.66 281.6 208.45 281.21C200.24 280.82 197.14 284.31 197.14 284.31C197.14 284.31 193.08 282.86 190.47 283C187.86 283.14 183.13 280.62 179.6 280.92C179.6 280.92 181.39 277.35 179.07 274.37C176.75 271.39 174.62 271.66 173.66 268.14C173.11 266.14 171.28 259.73 169.8 254.58C167.868 247.729 164.016 241.573 158.7 236.84C155.23 233.79 151.11 231.3 146.98 231.45C144.542 231.521 142.12 231.867 139.76 232.48Z" fill="black"/>
<path opacity="0.1" d="M140 231C137.144 231.745 134.527 233.21 132.398 235.255C130.269 237.3 128.7 239.856 127.84 242.68C126.91 245.88 126.97 249.38 130.14 251.68C137.39 257.04 147.63 260.81 152.37 269.61C155.357 275.382 157.419 281.588 158.48 288L170.76 306.12C170.76 306.12 172.62 311.92 185.05 307.38C197.48 302.84 204.27 300.52 204.27 300.52C204.27 300.52 213.9 295.35 218.2 293.46C218.807 293.148 219.452 292.92 220.12 292.78C221.57 292.78 231.93 283.91 232.4 282.69C232.87 281.47 221.93 276.4 217.56 277.5C217.56 277.5 216.93 280.12 208.72 279.73C200.51 279.34 197.41 282.82 197.41 282.82C197.41 282.82 193.35 281.37 190.74 281.52C188.13 281.67 183.39 279.14 179.87 279.44C179.87 279.44 181.66 275.87 179.33 272.89C177 269.91 174.89 270.19 173.92 266.66C173.37 264.66 171.54 258.25 170.06 253.1C168.136 246.258 164.299 240.107 159 235.37C155.53 232.32 151.41 229.83 147.28 230.01C144.824 230.062 142.381 230.394 140 231Z" fill="black"/>
<path d="M139.76 231.61C136.904 232.352 134.286 233.817 132.158 235.862C130.031 237.907 128.464 240.465 127.61 243.29C126.68 246.49 126.74 249.99 129.91 252.29C137.16 257.65 147.4 261.42 152.14 270.22C155.105 275.97 157.153 282.148 158.21 288.53L170.49 306.65C170.49 306.65 172.35 312.45 184.78 307.91C197.21 303.37 204 301.09 204 301.09C204 301.09 213.63 295.92 217.94 294.03C218.546 293.718 219.192 293.489 219.86 293.35C221.31 293.35 231.67 284.48 232.14 283.26C232.61 282.04 221.67 276.97 217.29 278.07C217.29 278.07 216.66 280.69 208.45 280.3C200.24 279.91 197.14 283.39 197.14 283.39C197.14 283.39 193.08 281.94 190.47 282.09C187.86 282.24 183.13 279.71 179.6 280.01C179.6 280.01 181.39 276.44 179.07 273.46C176.75 270.48 174.62 270.76 173.66 267.23C173.11 265.23 171.28 258.82 169.8 253.67C167.857 246.844 164.006 240.714 158.7 236C155.23 232.94 151.11 230.46 146.98 230.64C144.544 230.691 142.123 231.017 139.76 231.61Z" fill="#B90B2B"/>
<path opacity="0.1" d="M177.87 186.77C178.946 186.449 179.917 185.847 180.684 185.027C181.45 184.206 181.984 183.196 182.23 182.1C182.366 180.616 182.015 179.127 181.23 177.86C178.59 173.1 173.23 170.56 168.13 168.79C163.03 167.02 157.63 165.69 152.22 165.99C146.81 166.29 141.32 168.37 137.82 172.54C137.202 173.397 136.473 174.167 135.65 174.83C134.338 175.591 132.819 175.917 131.31 175.76C126.31 175.58 121.16 173.61 116.58 175.54C111.08 177.85 109.15 184.6 108.44 190.54C107.7 196.64 107.52 202.85 105.91 208.78C104.3 214.71 100.99 220.5 95.5901 223.44C93.9609 224.179 92.372 225.003 90.8301 225.91C90.0586 226.374 89.4075 227.013 88.9296 227.776C88.4518 228.539 88.1607 229.404 88.0801 230.3C88.0801 232.75 90.27 234.55 91.41 236.71C92.24 238.29 92.5701 240.18 93.8201 241.44C96.3101 243.96 100.74 242.54 103.94 244.07C106.79 245.44 108.01 248.79 110.25 251.07C112.88 253.7 116.76 254.61 120.47 254.87C122.496 255.11 124.551 254.874 126.47 254.18C130.2 252.6 132.17 248.35 132.39 244.31C132.61 240.27 131.45 236.31 130.6 232.31C130.201 231.027 130.201 229.653 130.6 228.37C131.046 227.415 131.736 226.594 132.6 225.99C137 222.51 143.27 220.92 145.79 215.92C147.49 212.56 146.98 208.56 147.39 204.82C147.435 203.434 147.97 202.109 148.9 201.08C150.14 199.94 151.99 199.89 153.66 199.74C158.623 199.24 163.307 197.205 167.06 193.92C168.88 192.33 169.98 190.35 171.57 188.62C173.16 186.89 175.73 187.5 177.87 186.77Z" fill="black"/>
<path d="M177.27 186.19C178.346 185.868 179.316 185.266 180.082 184.445C180.849 183.625 181.383 182.615 181.63 181.52C181.763 180.039 181.412 178.555 180.63 177.29C177.99 172.53 172.63 169.99 167.53 168.21C162.43 166.43 157.03 165.11 151.62 165.42C146.21 165.73 140.72 167.8 137.22 171.97C136.606 172.827 135.879 173.597 135.06 174.26C133.749 175.025 132.229 175.35 130.72 175.19C125.72 175.01 120.57 173.05 115.98 174.97C110.48 177.29 108.55 184.03 107.84 189.97C107.11 196.07 106.93 202.28 105.32 208.21C103.71 214.14 100.39 219.94 95 222.87C93.3707 223.612 91.7818 224.44 90.24 225.35C89.4706 225.813 88.8214 226.451 88.3453 227.212C87.8691 227.973 87.5795 228.836 87.5 229.73C87.5 232.18 89.69 233.98 90.83 236.14C91.66 237.71 91.99 239.61 93.21 240.87C95.71 243.39 100.13 241.96 103.33 243.5C106.18 244.87 107.41 248.22 109.65 250.5C112.28 253.12 116.16 254.04 119.87 254.29C121.896 254.534 123.952 254.298 125.87 253.6C129.6 252.02 131.57 247.77 131.79 243.73C132.01 239.69 130.84 235.73 130 231.73C129.623 230.444 129.623 229.076 130 227.79C130.446 226.835 131.136 226.014 132 225.41C136.39 221.94 142.66 220.35 145.19 215.34C146.89 211.98 146.38 207.98 146.79 204.24C146.832 202.855 147.364 201.53 148.29 200.5C149.53 199.36 151.39 199.31 153.05 199.16C158.012 198.656 162.695 196.622 166.45 193.34C168.27 191.76 169.37 189.77 170.96 188.04C172.55 186.31 175.15 186.94 177.27 186.19Z" fill="#687C99"/>
<g opacity="0.1">
<path opacity="0.1" d="M101.89 241.72C98.8901 240.29 94.89 241.43 92.3 239.55C92.5407 240.018 92.8472 240.449 93.2101 240.83C95.7101 243.35 100.13 241.92 103.33 243.46C104.055 243.815 104.712 244.296 105.27 244.88C104.423 243.563 103.261 242.477 101.89 241.72Z" fill="black"/>
<path opacity="0.1" d="M180.65 177.28C180.055 176.206 179.319 175.217 178.46 174.34C178.739 174.722 178.996 175.119 179.23 175.53C180.014 176.794 180.365 178.279 180.23 179.76C179.983 180.855 179.449 181.865 178.682 182.685C177.916 183.506 176.946 184.108 175.87 184.43C173.76 185.17 171.11 184.43 169.53 186.22C167.95 188.01 166.84 189.94 165.02 191.52C161.267 194.805 156.583 196.84 151.62 197.34C149.94 197.49 148.09 197.54 146.86 198.68C145.93 199.708 145.398 201.034 145.36 202.42C144.93 206.16 145.46 210.16 143.76 213.52C141.24 218.52 134.97 220.11 130.57 223.59C129.706 224.194 129.016 225.015 128.57 225.97C128.186 227.255 128.186 228.625 128.57 229.91C129.42 233.91 130.57 237.83 130.36 241.91C130.15 245.99 128.16 250.2 124.44 251.78C122.521 252.473 120.466 252.709 118.44 252.47C114.74 252.22 110.85 251.28 108.22 248.68C108.667 249.316 109.165 249.915 109.71 250.47C112.34 253.09 116.22 254.01 119.93 254.26C121.956 254.504 124.012 254.268 125.93 253.57C129.66 251.99 131.63 247.74 131.85 243.7C132.07 239.66 130.9 235.7 130.06 231.7C129.683 230.414 129.683 229.046 130.06 227.76C130.506 226.805 131.196 225.984 132.06 225.38C136.45 221.91 142.72 220.32 145.25 215.31C146.95 211.95 146.44 207.95 146.85 204.21C146.893 202.824 147.428 201.498 148.36 200.47C149.6 199.33 151.45 199.28 153.12 199.13C158.082 198.626 162.765 196.592 166.52 193.31C168.34 191.73 169.44 189.74 171.03 188.01C172.62 186.28 175.24 187.01 177.38 186.22C178.457 185.9 179.428 185.299 180.195 184.478C180.961 183.657 181.495 182.646 181.74 181.55C181.855 180.046 181.472 178.545 180.65 177.28Z" fill="black"/>
</g>
<path opacity="0.1" d="M600.57 468.7C625.102 468.7 644.99 465.647 644.99 461.88C644.99 458.113 625.102 455.06 600.57 455.06C576.037 455.06 556.15 458.113 556.15 461.88C556.15 465.647 576.037 468.7 600.57 468.7Z" fill="#D4D4D6"/>
<path opacity="0.1" d="M63.64 492.42C77.2538 492.42 88.29 490.728 88.29 488.64C88.29 486.552 77.2538 484.86 63.64 484.86C50.0262 484.86 38.99 486.552 38.99 488.64C38.99 490.728 50.0262 492.42 63.64 492.42Z" fill="#D4D4D6"/>
<path d="M55.74 332.71C55.74 332.71 59.99 338.26 53.74 346.65C47.49 355.04 42.4299 362.13 44.4799 367.35C44.4799 367.35 53.8499 351.77 61.4799 351.56C69.1099 351.35 64.15 342.08 55.74 332.71Z" fill="#BC082B"/>
<path d="M63.63 339.79C63.63 341.79 63.41 343.33 63.14 343.33C62.87 343.33 62.65 341.75 62.65 339.79C62.65 337.83 62.92 338.79 63.19 338.79C63.46 338.79 63.63 337.83 63.63 339.79Z" fill="#FFD037"/>
<path d="M66.34 342.13C64.63 343.06 63.13 343.63 63 343.39C62.87 343.15 64.16 342.2 65.88 341.26C67.6 340.32 66.88 341.01 67.07 341.26C67.26 341.51 68.06 341.19 66.34 342.13Z" fill="#FFD037"/>
<path d="M33.3 332.71C33.3 332.71 29.05 338.26 35.3 346.65C41.55 355.04 46.61 362.13 44.56 367.35C44.56 367.35 35.19 351.77 27.56 351.56C19.93 351.35 24.91 342.08 33.3 332.71Z" fill="#BC082B"/>
<path d="M25.4 339.79C25.4 341.79 25.62 343.33 25.89 343.33C26.16 343.33 26.38 341.75 26.38 339.79C26.38 337.83 26.11 338.79 25.84 338.79C25.57 338.79 25.4 337.83 25.4 339.79Z" fill="#FFD037"/>
<path d="M22.7 342.13C24.41 343.06 25.91 343.63 26.04 343.39C26.17 343.15 24.88 342.2 23.16 341.26C21.44 340.32 22.16 341.01 21.97 341.26C21.78 341.51 21 341.19 22.7 342.13Z" fill="#FFD037"/>
<path opacity="0.1" d="M44.52 409.85C69.0525 409.85 88.94 406.797 88.94 403.03C88.94 399.263 69.0525 396.21 44.52 396.21C19.9875 396.21 0.0999756 399.263 0.0999756 403.03C0.0999756 406.797 19.9875 409.85 44.52 409.85Z" fill="#D4D4D6"/>
<path d="M67.38 359.86L67.1699 361.59L66.8699 364.04L66.7399 365.04L66.4399 367.49L66.3099 368.49L65.9999 371L62.5999 398.87C62.2999 401.36 58.23 403.29 53.33 403.29H35.6899C30.78 403.29 26.7599 401.36 26.4299 398.87L22.9999 371L22.7 368.55L22.57 367.55L22.27 365.1L22.15 364.1L21.8499 361.65L21.64 359.92C21.47 358.51 23.6399 357.32 26.4399 357.32H62.5599C65.3399 357.27 67.5499 358.46 67.38 359.86Z" fill="#EDEDF4"/>
</svg>
