<svg width="94" height="70" viewBox="0 0 94 70" fill="none" xmlns="http://www.w3.org/2000/svg">
<path d="M91.51 58.6953V57.0053C91.51 56.5453 90.99 56.1953 90.35 56.1953C89.71 56.1953 89.19 56.5453 89.19 57.0053V58.4253C89.3121 59.168 89.6414 59.8613 90.14 60.4253L92.76 63.7853C93.3628 64.4042 93.7185 65.2223 93.76 66.0853V67.9353C93.76 68.9353 92.54 69.7853 91.01 69.7853H89.64C88.18 69.7853 87.02 68.9353 86.99 67.9353V66.3653C86.9911 66.1826 87.0511 66.0052 87.161 65.8593C87.2708 65.7135 87.4248 65.6068 87.6 65.5553C87.78 65.5553 88.67 65.2453 89.22 65.0753V67.6053C89.22 68.0453 89.74 68.3953 90.38 68.3953C91.02 68.3953 91.54 68.0453 91.54 67.5853V65.9353C91.4122 65.1942 91.0836 64.5025 90.59 63.9353L87.97 60.5953C87.3671 59.9763 87.0115 59.1583 86.97 58.2953V56.8253C86.97 55.8253 88.19 54.8953 89.72 54.8953H91.05C92.51 54.8953 93.7 55.8253 93.7 56.8253V57.4253C93.6988 57.6079 93.6388 57.7853 93.529 57.9312C93.4191 58.0771 93.2652 58.1837 93.09 58.2353C92.94 58.2553 92.05 58.5253 91.51 58.6953Z" fill="#9B041D"/>
<path d="M76.3501 68.0953C76.1101 68.4653 75.7401 69.0953 75.6501 69.1753C75.4931 69.3245 75.3048 69.4369 75.099 69.5043C74.8932 69.5718 74.6749 69.5926 74.4601 69.5653H69.5801V55.4253C69.5801 55.1953 69.8801 55.0053 70.2501 55.0053H75.9501L75.2201 56.0853C75.1001 56.2753 74.7601 56.4953 74.0601 56.4953H72.2901C71.9801 56.4953 71.7701 56.6453 71.7701 56.8453V61.1653H75.0501C74.8101 61.5353 74.4401 62.1653 74.3501 62.2653C74.1997 62.4151 74.0169 62.5283 73.8157 62.5959C73.6145 62.6635 73.4004 62.6839 73.1901 62.6553H72.2701C72.0001 62.6553 71.7501 62.8253 71.7501 63.0053V68.0053L76.3501 68.0953Z" fill="#9B041D"/>
<path d="M58.84 56.1153C58.72 56.3053 58.38 56.5053 57.68 56.5053H55.97C55.8519 56.4902 55.7323 56.517 55.6318 56.5809C55.5314 56.6448 55.4564 56.7419 55.42 56.8553V69.5553H53.86C53.34 69.5553 53.25 69.3453 53.25 69.2453V56.5153H50.17V55.5153C50.17 55.2653 50.48 55.0553 50.84 55.0553H59.57L58.84 56.1153Z" fill="#9B041D"/>
<path d="M38.7 55.0352C39.34 55.0352 39.58 55.3652 39.58 55.6152V69.5652H38.05C37.53 69.5652 37.44 69.3552 37.41 69.2552V55.0352H38.7Z" fill="#9B041D"/>
<path d="M25.2201 67.8653C25.2201 68.8653 24.0301 69.6052 22.6001 69.6252H20.9201C19.4201 69.6252 18.2001 68.8552 18.2001 67.8452V55.4253C18.2411 55.2917 18.3275 55.1766 18.4444 55.0999C18.5612 55.0232 18.7012 54.9898 18.8401 55.0053H20.4001V67.5952C20.4001 68.0352 20.8901 68.3853 21.5301 68.3853H21.8701C22.5101 68.3853 23.0301 68.0352 23.0301 67.5952V55.0353H25.2301L25.2201 67.8653Z" fill="#9B041D"/>
<path d="M4.57 58.6953V57.0053C4.57 56.5453 4.05 56.1953 3.41 56.1953C2.77 56.1953 2.25 56.5453 2.25 57.0053V58.4253C2.37217 59.168 2.70145 59.8613 3.2 60.4253L5.82 63.7853C6.42284 64.4042 6.77851 65.2223 6.82 66.0853V67.9353C6.82 68.9353 5.6 69.7853 4.07 69.7853H2.68C1.22 69.7853 0.0599988 68.9353 0.0299988 67.9353V66.3653C0.0311631 66.1826 0.0911201 66.0052 0.200989 65.8593C0.310857 65.7135 0.464795 65.6068 0.639999 65.5553C0.819999 65.5553 1.71 65.2453 2.26 65.0753V67.6053C2.26 68.0453 2.78 68.3953 3.42 68.3953C4.06 68.3953 4.58 68.0453 4.58 67.5853V65.9353C4.45225 65.1942 4.12366 64.5025 3.63 63.9353L1 60.6253C0.397155 60.0063 0.0414832 59.1883 0 58.3253V56.8253C0 55.8253 1.22 54.8953 2.75 54.8953H4.12C5.58 54.8953 6.77 55.8253 6.77 56.8253V57.4253C6.76884 57.6079 6.70888 57.7853 6.59901 57.9312C6.48914 58.0771 6.3352 58.1837 6.16 58.2353C6.05 58.2553 5.15 58.5253 4.57 58.6953Z" fill="#9B041D"/>
<path d="M92.42 38.0753C92.1696 38.0818 91.9198 38.048 91.68 37.9753C88.9134 37.1019 87.53 35.0353 87.53 31.7753C87.53 30.6219 87.4067 30.0453 87.16 30.0453C87.16 30.0453 86.27 31.1153 84.59 33.2453C83.6434 34.4719 82.7334 35.5853 81.86 36.5853C81.5486 37.0145 81.1477 37.371 80.685 37.63C80.2222 37.889 79.7087 38.0443 79.18 38.0853C78.4739 38.0719 77.7838 37.8718 77.18 37.5053C76.5112 37.1569 75.9545 36.6266 75.5741 35.9755C75.1937 35.3243 75.0051 34.5789 75.03 33.8253C75.0337 33.384 75.0874 32.9445 75.19 32.5153C76.2638 27.7163 78.4185 23.2256 81.49 19.3853C82.8234 17.5986 84.24 16.7053 85.74 16.7053C86.639 16.7019 87.5116 17.0092 88.21 17.5753C88.9434 18.1553 89.31 18.6553 89.31 19.0753C89.3278 19.4212 89.2554 19.7657 89.1 20.0753C88.7134 20.8086 88.2934 21.1753 87.84 21.1753C87.4366 21.1988 87.0348 21.1087 86.68 20.9153C86.4561 20.7622 86.2049 20.6536 85.94 20.5953C85.7267 20.5953 85.4467 20.8419 85.1 21.3353C83.1831 24.1478 81.6528 27.2052 80.55 30.4253C80.3855 30.7726 80.2775 31.1439 80.23 31.5253C80.23 31.7053 80.28 31.7853 80.39 31.7853C80.9167 31.7853 82.4234 30.2286 84.91 27.1153C88.0634 23.1553 89.99 21.0719 90.69 20.8653C91.0149 20.7684 91.3511 20.7146 91.69 20.7053C91.9209 20.6963 92.1515 20.7302 92.37 20.8053C92.8777 21.1109 93.2864 21.5565 93.5471 22.0886C93.8078 22.6208 93.9095 23.2168 93.84 23.8053C93.8371 24.4604 93.7497 25.1125 93.58 25.7453C92.9975 27.9396 92.6786 30.1955 92.63 32.4653C92.6263 33.8963 92.9298 35.3115 93.52 36.6153C93.6387 36.824 93.7103 37.056 93.73 37.2953C93.73 37.8153 93.2934 38.0753 92.42 38.0753Z" fill="#9B041D"/>
<path d="M60.3201 42.2153C58.5001 42.2153 57.5901 41.6186 57.5901 40.4253C57.5901 39.8319 58.0634 39.0953 59.0101 38.2153C60.7764 36.5713 62.4586 34.8391 64.0501 33.0253C66.1352 30.7423 68.0408 28.3017 69.7501 25.7253C70.7381 24.4861 71.3645 22.998 71.5601 21.4253C71.5861 21.2141 71.5627 20.9998 71.4915 20.7993C71.4204 20.5988 71.3035 20.4176 71.1502 20.2701C70.9969 20.1226 70.8113 20.0129 70.6082 19.9496C70.4051 19.8862 70.1901 19.8711 69.9801 19.9053C67.9017 20.1336 65.8748 20.7011 63.9801 21.5853C63.5335 21.7875 63.0503 21.8964 62.5601 21.9053C61.9752 21.8716 61.4035 21.7184 60.8801 21.4553C60.5641 21.3238 60.2791 21.1278 60.0432 20.8798C59.8073 20.6318 59.6257 20.3374 59.5101 20.0153C59.4439 19.867 59.4066 19.7075 59.4001 19.5453C59.4001 19.0919 59.7868 18.7253 60.5601 18.4453C63.5468 17.2817 66.707 16.626 69.9101 16.5053C72.7834 16.5053 74.7101 17.3819 75.6901 19.1353C76.0777 19.843 76.2774 20.6384 76.2701 21.4453C76.2701 23.6186 74.7634 26.6486 71.7501 30.5353L69.9101 32.8453C69.6498 33.139 69.4858 33.5055 69.4401 33.8953C69.4401 34.2086 69.5634 34.3653 69.8101 34.3653C70.0403 34.3556 70.2686 34.3186 70.4901 34.2553C71.2211 34.0214 71.9826 33.8967 72.7501 33.8853C74.3436 33.9231 75.8701 34.5337 77.0501 35.6053C77.4858 35.9349 77.8389 36.3612 78.0819 36.8506C78.3248 37.3399 78.4509 37.879 78.4501 38.4253C78.4871 39.1815 78.2531 39.9262 77.7901 40.5253C77.6028 40.7718 77.3607 40.9715 77.0831 41.1086C76.8054 41.2457 76.4997 41.3164 76.1901 41.3153C75.1034 41.3153 74.4368 40.9986 74.1901 40.3653C74.0192 39.894 73.9312 39.3966 73.9301 38.8953C73.9364 38.5004 73.9097 38.1057 73.8501 37.7153C73.7968 37.4153 73.5601 37.2486 73.1401 37.2153C72.7686 37.2329 72.4015 37.3037 72.0501 37.4253C69.1565 38.3643 66.3735 39.615 63.7501 41.1553C62.7144 41.7922 61.5345 42.1568 60.3201 42.2153Z" fill="#9B041D"/>
<path d="M56.39 38.0753C56.1396 38.0818 55.8897 38.048 55.65 37.9753C52.8833 37.1019 51.5 35.0353 51.5 31.7753C51.5 30.6219 51.3767 30.0453 51.13 30.0453C51.13 30.0453 50.24 31.1153 48.56 33.2453C47.6133 34.4719 46.7033 35.5853 45.83 36.5853C45.5186 37.0145 45.1177 37.371 44.6549 37.63C44.1922 37.889 43.6787 38.0443 43.15 38.0853C42.4438 38.0719 41.7538 37.8718 41.15 37.5053C40.4812 37.1569 39.9245 36.6266 39.5441 35.9755C39.1636 35.3243 38.975 34.5789 39 33.8253C39.0037 33.384 39.0573 32.9445 39.16 32.5153C40.2338 27.7163 42.3885 23.2256 45.46 19.3853C46.7933 17.5986 48.21 16.7053 49.71 16.7053C50.609 16.7019 51.4815 17.0092 52.18 17.5753C52.9133 18.1553 53.28 18.6553 53.28 19.0753C53.2978 19.4212 53.2254 19.7657 53.07 20.0753C52.6833 20.8086 52.2633 21.1753 51.81 21.1753C51.4066 21.1988 51.0047 21.1087 50.65 20.9153C50.4261 20.7622 50.1749 20.6536 49.91 20.5953C49.6967 20.5953 49.4167 20.8419 49.07 21.3353C47.1496 24.1473 45.6159 27.2046 44.51 30.4253C44.3455 30.7726 44.2374 31.1439 44.19 31.5253C44.19 31.7053 44.24 31.7853 44.35 31.7853C44.8767 31.7853 46.3833 30.2286 48.87 27.1153C52.0233 23.1553 53.95 21.0719 54.65 20.8653C54.9749 20.7684 55.3111 20.7146 55.65 20.7053C55.8809 20.6963 56.1115 20.7302 56.33 20.8053C56.8376 21.1109 57.2463 21.5565 57.5071 22.0886C57.7678 22.6208 57.8695 23.2168 57.8 23.8053C57.7971 24.4604 57.7097 25.1125 57.54 25.7453C56.9575 27.9396 56.6385 30.1955 56.59 32.4653C56.5863 33.8963 56.8898 35.3115 57.48 36.6153C57.5986 36.824 57.6703 37.056 57.69 37.2953C57.6967 37.8153 57.2633 38.0753 56.39 38.0753Z" fill="#9B041D"/>
<path d="M31.7001 39.6953C26.3667 39.6953 23.7001 37.2253 23.7001 32.2853C23.7001 31.8319 23.7967 30.7986 23.9901 29.1853C24.3861 26.978 25.1393 24.8501 26.2201 22.8853C28.5667 18.2653 31.0701 15.9553 33.7301 15.9553C34.7838 15.9483 35.8158 16.2545 36.6953 16.8349C37.5748 17.4152 38.2621 18.2437 38.6701 19.2153C39.0166 19.8611 39.1986 20.5823 39.2001 21.3153C39.177 22.3129 38.9055 23.289 38.4101 24.1553C35.3967 28.6019 32.5601 31.4553 29.9001 32.7153C28.9534 33.1686 28.4801 33.6419 28.4801 34.1353C28.4827 34.3498 28.5199 34.5625 28.5901 34.7653C28.8967 35.8719 29.5301 36.4253 30.4901 36.4253C31.8901 36.4253 33.7634 35.5686 36.1101 33.8553C37.6501 32.7353 38.7534 31.8786 39.4201 31.2853C40.2601 30.4453 40.9267 30.0253 41.4201 30.0253C41.6881 30.031 41.9473 30.1221 42.1601 30.2853C42.3463 30.4482 42.4946 30.6499 42.5948 30.8762C42.695 31.1024 42.7446 31.3478 42.7401 31.5953C42.6012 32.4986 42.2289 33.35 41.6601 34.0653C40.6867 35.4086 39.4972 36.5812 38.1401 37.5353C36.8779 38.5761 35.3637 39.2659 33.7501 39.5353C33.0101 39.6419 32.3267 39.6953 31.7001 39.6953ZM29.7001 28.6953C30.8208 27.81 31.721 26.677 32.3301 25.3853C33.5901 23.0719 34.2201 21.6353 34.2201 21.0753C34.2201 20.7953 34.0434 20.6553 33.6901 20.6553C33.5797 20.6498 33.4697 20.6704 33.3689 20.7156C33.2681 20.7608 33.1794 20.8292 33.1101 20.9153C30.4834 25.3953 29.1701 27.8119 29.1701 28.1653C29.1701 28.5186 29.3467 28.6853 29.7001 28.6653V28.6953Z" fill="#9B041D"/>
<path d="M3.6001 43.7453C2.97255 43.7482 2.35526 43.5861 1.8101 43.2753C1.00343 42.8219 0.600098 41.3353 0.600098 38.8153C0.662391 35.8563 0.959996 32.907 1.4901 29.9953C2.40343 24.5353 3.14676 20.6486 3.7201 18.3353C4.12396 16.9443 4.4149 15.523 4.5901 14.0853C4.5901 13.4186 4.1701 12.9453 3.3301 12.6653C2.93328 12.5483 2.58516 12.3057 2.3381 11.9738C2.09103 11.642 1.95838 11.2389 1.9601 10.8253C1.96092 10.5588 1.99451 10.2935 2.0601 10.0353C3.14676 6.08192 6.22677 3.17525 11.3001 1.31525C13.2899 0.513452 15.4058 0.0699534 17.5501 0.00525345C19.4201 -0.0638767 21.2511 0.551203 22.7001 1.73525C23.8868 2.82192 24.4834 4.80192 24.4901 7.67525C24.4901 8.20192 24.4201 9.53525 24.2801 11.6753C23.8492 14.9423 22.964 18.1332 21.6501 21.1553C20.0725 25.2391 18.1033 29.1608 15.7701 32.8653C13.8687 36.0831 11.4611 38.9734 8.64009 41.4253C6.71343 42.9719 5.03343 43.7453 3.6001 43.7453ZM6.2301 38.2353C7.3501 38.1619 9.43343 35.1152 12.4801 29.0953C14.4401 25.2819 16.2268 21.3253 17.8401 17.2253C19.8001 12.1853 20.7801 8.68525 20.7801 6.72525C20.7801 4.31192 19.4668 3.10525 16.8401 3.10525C15.5947 3.10307 14.3646 3.37984 13.2401 3.91526C12.8301 4.07095 12.462 4.32014 12.1651 4.64303C11.8683 4.96592 11.6509 5.35359 11.5301 5.77525C10.0568 12.6419 9.1101 16.8453 8.6901 18.3853C7.19144 24.0205 6.1382 29.7649 5.5401 35.5653C5.57343 37.3386 5.80343 38.2253 6.2301 38.2253V38.2353Z" fill="#9B041D"/>
</svg>
