<svg width="144" height="65" viewBox="0 0 144 65" fill="none" xmlns="http://www.w3.org/2000/svg">
<path d="M144 63.289C143.821 63.7026 143.539 64.3419 143.473 64.4735C143.379 64.6217 143.246 64.7408 143.088 64.8172C142.93 64.8936 142.754 64.9244 142.58 64.906H138.649V48.8863H139.787C139.917 48.8931 140.04 48.9478 140.132 49.0398C140.224 49.1318 140.278 49.2546 140.285 49.3846V63.289H144Z" fill="#9B041D"/>
<path d="M130.204 63.289C130.025 63.7026 129.743 64.3419 129.677 64.4735C129.584 64.6217 129.45 64.7408 129.292 64.8172C129.134 64.8936 128.958 64.9244 128.784 64.906H125.088V49.3752C125.098 49.2497 125.154 49.1324 125.247 49.0469C125.339 48.9615 125.461 48.9142 125.587 48.9145H129.856L129.311 50.0991C129.229 50.2535 129.103 50.3799 128.949 50.462C128.794 50.5441 128.619 50.5781 128.445 50.5597H127.119C127.068 50.5584 127.018 50.5675 126.97 50.5864C126.923 50.6054 126.88 50.6337 126.844 50.6698C126.808 50.7058 126.779 50.7488 126.761 50.7962C126.742 50.8435 126.733 50.8942 126.734 50.9452V55.6928H129.198C129.019 56.1065 128.737 56.7645 128.671 56.9056C128.58 57.0492 128.451 57.1653 128.298 57.2415C128.146 57.3177 127.976 57.351 127.806 57.338H127.119C127.019 57.3426 126.923 57.3847 126.852 57.456C126.781 57.5273 126.738 57.6227 126.734 57.7235V63.2702L130.204 63.289Z" fill="#9B041D"/>
<path d="M117.095 50.1085C117.01 50.2585 116.882 50.3798 116.728 50.4569C116.574 50.5339 116.4 50.5632 116.229 50.5409H114.951C114.846 50.5428 114.746 50.5833 114.67 50.6544C114.593 50.7256 114.546 50.8224 114.537 50.9264V64.8684H113.371C112.985 64.8684 112.91 64.6428 112.91 64.53V50.5409H110.606V49.4222C110.608 49.2908 110.662 49.1655 110.754 49.0725C110.847 48.9796 110.973 48.9263 111.104 48.9239H117.64L117.095 50.1085Z" fill="#9B041D"/>
<path d="M101.38 48.7547C101.905 48.7738 102.403 48.9927 102.772 49.3667C103.141 49.7407 103.353 50.2415 103.365 50.7666V62.9881C103.353 63.5132 103.141 64.014 102.772 64.388C102.403 64.762 101.905 64.9809 101.38 65H100.12C99.5828 64.9978 99.0674 64.7865 98.683 64.411C98.2986 64.0355 98.0755 63.5252 98.0608 62.9881V50.7666C98.062 50.4979 98.1163 50.232 98.2206 49.9844C98.3249 49.7367 98.4771 49.5121 98.6685 49.3234C98.8598 49.1347 99.0866 48.9857 99.3358 48.8849C99.5849 48.784 99.8515 48.7334 100.12 48.7359L101.38 48.7547ZM100.835 63.6274C100.951 63.6262 101.065 63.6021 101.171 63.5564C101.277 63.5107 101.374 63.4445 101.454 63.3614C101.535 63.2783 101.598 63.1801 101.64 63.0725C101.682 62.9649 101.703 62.8499 101.7 62.7343V51.0862C101.703 50.9706 101.682 50.8557 101.64 50.748C101.598 50.6404 101.535 50.5422 101.454 50.4591C101.374 50.3761 101.277 50.3098 101.171 50.2641C101.065 50.2184 100.951 50.1943 100.835 50.1931H100.581C100.353 50.2111 100.139 50.3118 99.9797 50.4763C99.8205 50.6407 99.7266 50.8576 99.7159 51.0862V62.7343C99.7266 62.9629 99.8205 63.1798 99.9797 63.3442C100.139 63.5087 100.353 63.6094 100.581 63.6274H100.835Z" fill="#9B041D"/>
<path d="M89.0893 48.8863C89.1759 48.8795 89.2629 48.8913 89.3446 48.9207C89.4263 48.9502 89.5007 48.9967 89.563 49.0572C89.6253 49.1177 89.674 49.1908 89.7058 49.2715C89.7376 49.3523 89.7519 49.4389 89.7476 49.5256V64.8684H88.1019V57.9397C88.0949 57.8415 88.0515 57.7495 87.9801 57.6817C87.9088 57.6139 87.8147 57.5751 87.7163 57.5731H85.9295V64.8684H84.2838V49.5538C84.2796 49.4671 84.2938 49.3805 84.3256 49.2997C84.3575 49.219 84.4062 49.1459 84.4684 49.0854C84.5307 49.0249 84.6052 48.9784 84.6868 48.9489C84.7685 48.9195 84.8555 48.9077 84.9421 48.9145H85.8825V55.3826C85.8825 55.8432 86.0612 55.956 86.4562 55.956H88.0549V48.8863H89.0893Z" fill="#9B041D"/>
<path d="M133.947 35.9878C129.094 35.9878 126.668 33.7378 126.668 29.2378C126.668 28.8241 126.756 27.884 126.931 26.4174C127.295 24.4077 127.985 22.4708 128.972 20.6827C131.11 16.4709 133.392 14.3651 135.818 14.3651C136.777 14.3607 137.716 14.6406 138.516 15.1693C139.316 15.6981 139.942 16.452 140.313 17.3358C140.623 17.9146 140.787 18.5598 140.793 19.2161C140.773 20.1239 140.528 21.0124 140.078 21.8014C137.332 25.8565 134.746 28.4575 132.32 29.6044C131.461 30.0181 131.031 30.4474 131.031 30.8924C131.031 31.0874 131.063 31.2811 131.126 31.4659C131.414 32.4875 131.988 32.9983 132.846 32.9983C134.1 32.9983 135.809 32.218 137.972 30.6574C139.376 29.6358 140.382 28.8555 140.99 28.3165C141.755 27.5518 142.36 27.1695 142.805 27.1695C143.047 27.1755 143.281 27.2578 143.473 27.4045C143.642 27.5534 143.777 27.7373 143.868 27.9435C143.959 28.1497 144.004 28.3732 144 28.5985C143.886 29.4161 143.562 30.1903 143.059 30.8454C142.172 32.0683 141.089 33.1357 139.853 34.0042C138.71 34.9736 137.331 35.6224 135.856 35.8844C135.16 35.9534 134.524 35.9878 133.947 35.9878ZM132.132 25.938C133.139 25.1257 133.947 24.0933 134.492 22.9202C135.639 20.8143 136.213 19.5075 136.213 18.9999C136.213 18.746 136.053 18.6144 135.734 18.6144C135.633 18.6096 135.534 18.6284 135.442 18.6692C135.351 18.71 135.27 18.7718 135.207 18.8494C132.812 22.9358 131.615 25.1294 131.615 25.4303C131.615 25.7311 131.787 25.9003 132.132 25.938Z" fill="#9B041D"/>
<path d="M119.446 38.6672C118.372 38.7468 117.306 38.4371 116.443 37.7948C115.579 37.1525 114.976 36.2206 114.744 35.1699C114.262 33.506 114.036 31.7782 114.076 30.0463C114.219 25.7104 114.901 21.4092 116.107 17.2418C117.461 12.09 118.809 6.94436 120.151 1.80503C120.446 0.601678 121.088 0 122.079 0C122.401 0.00856181 122.719 0.0721552 123.019 0.188024C123.356 0.288172 123.65 0.497898 123.855 0.783984C124.059 1.07007 124.162 1.41616 124.148 1.76743C124.138 2.18738 124.075 2.60438 123.96 3.00839C120.198 17.3045 118.317 27.0034 118.317 32.1051C118.317 34.4993 118.747 35.6964 119.606 35.6964C120.721 35.6964 123.066 34.0199 126.64 30.6668L126.687 30.6198C127.015 30.2977 127.45 30.1071 127.909 30.0839C128.16 30.0969 128.397 30.2005 128.577 30.3753C128.682 30.4627 128.767 30.5719 128.825 30.6953C128.884 30.8187 128.914 30.9533 128.916 31.0898C128.898 31.4645 128.781 31.8278 128.577 32.1428C126 36.4924 122.957 38.6672 119.446 38.6672Z" fill="#9B041D"/>
<path d="M111.405 34.5025C111.179 34.5068 110.954 34.4751 110.737 34.4084C108.23 33.6125 106.976 31.7322 106.976 28.7677C106.976 27.7148 106.863 27.1883 106.637 27.1883C106.637 27.1883 105.819 28.1284 104.296 30.1121C103.437 31.2277 102.606 32.2399 101.804 33.1487C101.519 33.5393 101.153 33.8635 100.731 34.0989C100.309 34.3342 99.8405 34.4751 99.3586 34.5119C98.6957 34.5086 98.0459 34.3267 97.4777 33.9854C96.8646 33.6734 96.3537 33.1925 96.0054 32.5994C95.6571 32.0062 95.486 31.3258 95.5123 30.6386C95.514 30.2365 95.5614 29.836 95.6533 29.4446C96.6327 25.0702 98.5979 20.977 101.399 17.4769C102.653 15.8473 103.945 15.0325 105.274 15.0325C106.091 15.0295 106.885 15.3084 107.521 15.8222C108.192 16.3487 108.528 16.8031 108.528 17.1854C108.547 17.5098 108.482 17.8337 108.339 18.1255C107.988 18.7962 107.606 19.1315 107.192 19.1315C106.826 19.1524 106.461 19.071 106.139 18.8964C105.937 18.7578 105.71 18.6588 105.471 18.605C105.277 18.605 105.023 18.8275 104.709 19.2725C102.968 21.8511 101.582 24.6529 100.59 27.602C100.44 27.9196 100.342 28.2592 100.299 28.6079C100.299 28.7677 100.346 28.8429 100.44 28.8429C100.917 28.8429 102.289 27.4233 104.559 24.5842C107.43 20.9804 109.186 19.0813 109.825 18.887C110.131 18.7979 110.447 18.7505 110.766 18.746C110.977 18.7386 111.187 18.7705 111.386 18.84C111.848 19.1186 112.219 19.5234 112.458 20.0066C112.696 20.4897 112.791 21.031 112.731 21.5664C112.729 22.1632 112.65 22.7572 112.496 23.3338C111.965 25.3353 111.674 27.3931 111.631 29.4634C111.634 30.7607 111.913 32.0426 112.449 33.2239C112.556 33.4146 112.62 33.6263 112.637 33.8444C112.612 34.2831 112.201 34.5025 111.405 34.5025Z" fill="#9B041D"/>
<path d="M88.6191 34.5025L87.6787 34.4555C86.6911 34.3486 85.7823 33.8666 85.14 33.109C84.4977 32.3515 84.171 31.3762 84.2274 30.3847V27.9404C84.2912 25.2843 84.606 22.6402 85.1678 20.0434C85.3104 19.3232 85.4078 18.5947 85.4593 17.8623C85.526 17.1048 85.7299 16.3658 86.0612 15.6812C86.234 15.3787 86.4919 15.1337 86.8029 14.9766C87.1139 14.8195 87.4642 14.7572 87.8103 14.7975C89.5031 14.7975 90.3494 15.4681 90.3494 16.8094L90.3024 17.1478C89.6686 19.8524 89.2814 22.6088 89.1457 25.3833C89.1457 25.8596 89.2084 26.0978 89.3338 26.0978C89.4592 26.0978 89.7131 25.7311 90.0955 24.9978C91.9137 21.1371 93.271 18.3762 94.1675 16.7154C94.3207 16.3357 94.579 16.0076 94.9121 15.7694C95.2453 15.5313 95.6394 15.3931 96.0483 15.371C96.569 15.3658 97.0817 15.4988 97.5342 15.7564C97.8139 15.8593 98.0578 16.0411 98.2364 16.2797C98.415 16.5183 98.5206 16.8035 98.5404 17.1008C98.5404 17.6461 97.3273 20.3724 94.901 25.2799C92.318 30.4505 90.7852 33.2709 90.3024 33.741C90.0892 33.9767 89.8297 34.166 89.5401 34.297C89.2505 34.428 88.937 34.498 88.6191 34.5025Z" fill="#9B041D"/>
<path d="M70.6197 34.5025C70.3936 34.5068 70.1682 34.4751 69.952 34.4084C67.4443 33.6125 66.1904 31.7322 66.1904 28.7677C66.1904 27.7148 66.0775 27.1883 65.8518 27.1883C65.8518 27.1883 65.0337 28.1284 63.5102 30.1121C62.6513 31.2277 61.8206 32.2399 61.0181 33.1487C60.7336 33.5393 60.3676 33.8635 59.9454 34.0989C59.5233 34.3342 59.055 34.4751 58.5731 34.5119C57.9102 34.5086 57.2604 34.3267 56.6923 33.9854C56.0791 33.6734 55.5682 33.1925 55.2199 32.5994C54.8716 32.0062 54.7005 31.3258 54.7268 30.6386C54.7286 30.2365 54.7759 29.836 54.8679 29.4446C55.8473 25.0702 57.8125 20.977 60.6138 17.4769C61.8676 15.8473 63.1591 15.0325 64.4882 15.0325C65.306 15.0295 66.0998 15.3084 66.7358 15.8222C67.3941 16.3424 67.7232 16.7937 67.7232 17.176C67.7429 17.5004 67.6781 17.8243 67.5352 18.1161C67.1841 18.7868 66.8016 19.1221 66.3879 19.1221C66.0218 19.143 65.6571 19.0616 65.3346 18.887C65.1326 18.7484 64.906 18.6494 64.6669 18.5956C64.4726 18.5956 64.2187 18.8181 63.9052 19.2631C62.1637 21.8417 60.7782 24.6435 59.7862 27.5926C59.6359 27.9102 59.5375 28.2498 59.4947 28.5985C59.4947 28.7583 59.5417 28.8335 59.6357 28.8335C60.1122 28.8335 61.4852 27.4139 63.7547 24.5748C66.6261 20.971 68.3815 19.0719 69.021 18.8776C69.3267 18.7885 69.643 18.7411 69.9614 18.7366C70.1581 18.7247 70.3554 18.7469 70.5445 18.8024C71.0057 19.081 71.3774 19.4858 71.6157 19.969C71.854 20.4521 71.9489 20.9934 71.8893 21.5288C71.8871 22.1256 71.8081 22.7196 71.6542 23.2962C71.1229 25.2977 70.8325 27.3555 70.789 29.4258C70.7919 30.7231 71.0707 32.005 71.6071 33.1863C71.7142 33.377 71.7784 33.5887 71.7952 33.8068C71.8078 34.2706 71.4159 34.5025 70.6197 34.5025Z" fill="#9B041D"/>
<path d="M48.6988 38.6672C47.6254 38.7468 46.5592 38.4371 45.6957 37.7948C44.8321 37.1525 44.229 36.2206 43.9968 35.1699C43.5217 33.5175 43.2998 31.8027 43.3385 30.0839C43.4815 25.748 44.1639 21.4468 45.3697 17.2794C46.7239 12.1276 48.0719 6.98197 49.4135 1.84264C49.7082 0.614213 50.3633 0 51.379 0C51.7009 0.00856181 52.0189 0.0721552 52.3194 0.188024C52.66 0.284687 52.9582 0.492929 53.1663 0.779338C53.3743 1.06575 53.4801 1.41372 53.4667 1.76743C53.4568 2.18738 53.3936 2.60438 53.2786 3.00839C49.5169 17.3045 47.6361 27.0034 47.6361 32.1051C47.6737 34.5181 48.122 35.7246 48.9809 35.7246C50.0969 35.7246 52.4416 34.0481 56.0152 30.695L56.0622 30.648C56.3573 30.3395 56.7486 30.1405 57.1719 30.0839C57.4224 30.0969 57.6597 30.2005 57.8396 30.3753C57.9445 30.4627 58.0291 30.5719 58.0876 30.6953C58.1461 30.8187 58.177 30.9533 58.1781 31.0898C58.1602 31.4645 58.0434 31.8278 57.8396 32.1428C55.2879 36.4924 52.241 38.6672 48.6988 38.6672Z" fill="#9B041D"/>
<path d="M35.6271 35.7998C34.7419 35.7468 33.8817 35.4859 33.1162 35.0383C32.0153 34.3749 31.1905 33.3368 30.7934 32.1146C30.4635 31.2604 30.3007 30.3508 30.3138 29.4352C30.4176 27.3302 30.8197 25.2506 31.5081 23.2586C32.2047 20.9444 33.1507 18.7126 34.3294 16.6026C34.5593 16.1087 34.924 15.6897 35.3814 15.3936C35.8389 15.0976 36.3706 14.9366 36.9155 14.9291C38.7023 14.9291 39.7242 15.7282 39.9812 17.3264C40.0977 17.7212 40.3304 18.0717 40.6489 18.3324C41.9905 19.5859 42.6614 21.4661 42.6614 23.9731C42.6614 24.0985 42.6363 24.7753 42.5861 26.0038C42.3711 27.756 41.8456 29.4559 41.0345 31.024C40.3346 32.8738 39.0019 34.4159 37.2728 35.3768C36.7637 35.6414 36.2008 35.7862 35.6271 35.7998ZM34.8654 31.7291C36.0212 30.9966 36.924 29.9267 37.4515 28.6643C38.3516 26.8319 38.8273 24.8205 38.8433 22.7792C38.8636 21.7274 38.6314 20.6861 38.1662 19.7426C37.301 20.6523 36.6573 21.7494 36.2854 22.9484C35.3228 25.2584 34.7875 27.7238 34.7055 30.2249C34.686 30.7314 34.7398 31.238 34.8654 31.7291Z" fill="#9B041D"/>
<path d="M23.4206 46.066H23.1855C22.7316 46.0746 22.2837 45.9614 21.8884 45.7382C21.4931 45.515 21.1649 45.1899 20.938 44.7968C20.3652 43.8621 20.0205 42.8058 19.9317 41.7132C19.9004 41.3936 19.8534 40.1651 19.7907 38.0279C19.7333 34.7137 19.9409 31.4002 20.4113 28.119C20.5001 27.6953 20.5474 27.264 20.5524 26.8311C20.5524 25.2391 19.8659 24.44 18.4929 24.4338C16.2996 24.469 14.1232 24.8237 12.0323 25.4867C11.2613 25.6608 10.5305 25.9798 9.87876 26.4268C9.29486 27.4123 8.9054 28.5005 8.73146 29.6326C8.42624 31.0638 8.26557 32.5221 8.25185 33.9854C8.28924 35.2887 8.44982 36.5856 8.73146 37.8587C8.73146 38.592 8.15781 38.9586 7.01052 38.9586C5.02939 38.9586 3.97613 38.2567 3.85075 36.8528L3.77551 35.7246C3.77145 34.3505 3.94852 32.9818 4.30214 31.6539C4.61155 30.6116 4.78848 29.5345 4.82877 28.4481C4.82877 27.5581 4.33349 27.11 3.34293 27.1037C2.45675 27.1939 1.56364 27.0206 0.775612 26.6054C0.495122 26.2882 0.282786 25.9167 0.151759 25.514C0.0207313 25.1113 -0.0261965 24.6861 0.0138821 24.2645C0.0138821 23.6378 0.164347 23.2304 0.465278 23.0424C1.25996 22.7557 2.09429 22.594 2.93855 22.5629C3.9899 22.5678 5.00183 22.1632 5.75977 21.4348C6.40926 20.5449 6.8584 19.525 7.07634 18.4452C7.70328 15.7 8.40545 12.9893 9.18286 10.3131C9.33959 9.83681 9.53081 9.18186 9.75651 8.34828C9.91324 7.72153 10.4242 7.40816 11.2894 7.40816C11.8029 7.43834 12.3145 7.49482 12.8222 7.57738C12.9951 7.58654 13.1643 7.63094 13.3193 7.70786C13.4744 7.78478 13.6121 7.89259 13.724 8.02467C13.8358 8.15675 13.9195 8.3103 13.9698 8.47589C14.0201 8.64148 14.036 8.8156 14.0166 8.98756C14.0266 9.39023 13.9791 9.79228 13.8755 10.1815C12.3144 15.0325 11.5339 17.9845 11.5339 19.0375C11.5339 20.5041 12.236 21.2373 13.6404 21.2373C15.6817 21.1371 17.7125 20.8826 19.7154 20.4758C21.3455 20.1562 22.2859 19.4699 22.5366 18.417C23.6401 13.8292 24.5961 9.96216 25.4049 6.81588C26.2136 3.66961 27.2105 2.08394 28.3954 2.05887C29.48 2.05887 30.0223 2.74516 30.0223 4.11773C30.0223 5.49031 29.2731 9.60491 27.7747 16.4615C25.4425 26.4895 24.2764 34.0105 24.2764 39.0244C24.3295 40.8695 24.5213 42.7079 24.85 44.5242V44.8156C24.8563 45.6492 24.3798 46.066 23.4206 46.066Z" fill="#9B041D"/>
</svg>
